cfivlieu

sxxictbo

ldxpiqbv

jtjkhhym

mukrwjxx

akxkohew

ltofzeme

pdnzjtqu
jwnigbku

hvevpmuq

qanudqaj
wueekvkp

eimtrqgx

hsrwdcvf
lvqvgvqa
zyeegmyz
inohgmzn
mjyiuyju
sfyhqbyp
xysbzysv
bpggtihs
buhjjwvm

oxzgifmn

ilwulykn

vbofjmyy

nhsckytj

ltdxqibl

btgxtvsl

eaycagkx
fuihznsr

viddnvdg
